…
markerExon = rbind(cmeGl %>% mutate(tech = "cell"),
                   nmeGl %>% mutate(tech = "nuc"))


intFracSummary %>% pivot_longer(cols=c(cell_mean_intron,nuc_mean_intron),
                                values_to = "intron_fraction",names_to="tech") %>%
  mutate(tech = gsub("_mean_intron","",tech),
         tc = paste0(tech, subclass_label))
```

    ## # A tibble: 34 × 4
    ## # Groups:   subclass_label [17]
    ##    subclass_label tech  intron_fraction tc         
    ##    <chr>          <chr>           <dbl> <chr>      
    ##  1 Astro          cell            0.453 cellAstro  
    ##  2 Astro          nuc             0.556 nucAstro   
    ##  3 Endo           cell            0.316 cellEndo   
    ##  4 Endo           nuc             0.367 nucEndo    
    ##  5 L2/3 IT        cell            0.395 cellL2/3 IT
    ##  6 L2/3 IT        nuc             0.662 nucL2/3 IT 
    ##  7 L5 ET          cell            0.402 cellL5 ET  
    ##  8 L5 ET          nuc             0.672 nucL5 ET   
    ##  9 L5 IT          cell            0.408 cellL5 IT  
    ## 10 L5 IT          nuc             0.668 nucL5 IT   
    ## # … with 24 more rows
…
